team.Rmd
…
perSumStateCount <- perSum %>%
                    group_by(STATE) %>%
                    summarise(sumST_count = n())

perWinSumSTCount <- full_join(perWinStateCount, perSumStateCount, by = "STATE")

perInjCountPer <- full_join(perInjCount, perWinSumSTCount, by = "STATE")

perInj <- perInjCountPer %>%
          mutate(winPercentage = win_Count / winST_count, sumPercentage = sum_Count / sumST_count)

perfatal <- perInj %>% filter(INJ_SEV == 4)
perfatal

## # A tibble: 51 x 8
## # Groups:   STATE [51]
##    STATE INJ_SEV win_Count sum_Count winST_count sumST_count winPercentage
##    <int>   <int>     <int>     <int>       <int>       <int>         <dbl>
##  1     1       4       222       319         412         680         0.539
##  2     2       4        22        31          55          60         0.4  
##  3     4       4       237       329         615         776         0.385
##  4     5       4       114       184         236         393         0.483
##  5     6       4       851      1254        2030        2954         0.419
##  6     8       4       123       263         285         653         0.432
##  7     9       4        66        97         130         216         0.508
##  8    10       4        28        49          59         111         0.475
##  9    11       4         9        11          15          26         0.6  
## 10    12       4       813       937        1984        2383         0.410
## # ... with 41 more rows, and 1 more variable: sumPercentage <dbl>
…
